{
  "students": [
    {
      "name": "Lulu Gearside",
      "class": "art",
      "attended": 35
    },
    {
      "name": "Matthew Milham",
      "class": "art",
      "attended": 11
    },
    {
      "name": "Dany Dufner",
      "class": "biology",
      "attended": 12
    },
    {
      "name": "Jeremy Doyle",
      "class": "biology",
      "attended": 3
    },
    {
      "name": "Tim O'Connor",
      "class": "biology",
      "attended": 10
    },
    {
      "name": "Charlie Wang",
      "class": "french",
      "attended": 12
    }
  ]
}